<?xml version="1.0" encoding="UTF-8"?>
<svg width="132px" height="132px" viewBox="0 0 132 132" version="1.1" xmlns="http://www.w3.org/2000/svg" xmlns:xlink="http://www.w3.org/1999/xlink">
    <!-- Generator: sketchtool 57.1 (101010) - https://sketch.com -->
    <title>581A74BD-F6D7-4B5F-A91D-0AA6DE1F9E77</title>
    <desc>Created with sketchtool.</desc>
    <g id="Inner-Page" stroke="none" stroke-width="1" fill="none" fill-rule="evenodd">
        <g id="Services-Single" transform="translate(-1074.000000, -333.000000)" fill="#FFFFFF">
            <g id="Banner">
                <g id="banner-content" transform="translate(315.000000, 197.000000)">
                    <g id="Shape-&amp;-abstract-" transform="translate(594.000000, 103.000000)">
                        <path d="M297,99 C297,135.446672 267.446672,165 231,165 C194.553328,165 165,135.446672 165,99 C165,62.5442041 194.553328,33 231,33 C267.446672,33 297,62.5442041 297,99" id="Fill-406"></path>
                    </g>
                </g>
            </g>
        </g>
    </g>
</svg>