<?xml version="1.0" encoding="UTF-8"?>
<svg width="161px" height="161px" viewBox="0 0 161 161" version="1.1" xmlns="http://www.w3.org/2000/svg" xmlns:xlink="http://www.w3.org/1999/xlink">
    <!-- Generator: sketchtool 57.1 (101010) - https://sketch.com -->
    <title>6D998CD3-791A-4AE2-9C11-6A481F391780</title>
    <desc>Created with sketchtool.</desc>
    <g id="Inner-Page" stroke="none" stroke-width="1" fill="none" fill-rule="evenodd">
        <g id="Contact" transform="translate(-847.000000, -876.000000)" fill="#FFFFFF">
            <g id="About-" transform="translate(0.000000, 350.000000)">
                <g id="Background">
                    <g id="Shape-&amp;-abstract-" transform="translate(933.500000, 699.000000) scale(-1, 1) translate(-933.500000, -699.000000) translate(657.000000, 486.000000)">
                        <path d="M363,120.5 C363,164.953895 326.953895,201 282.5,201 C238.046105,201 202,164.953895 202,120.5 C202,76.0349762 238.046105,40 282.5,40 C326.953895,40 363,76.0349762 363,120.5" id="Fill-406"></path>
                    </g>
                </g>
            </g>
        </g>
    </g>
</svg>